{
    "KPackageStructure": "KPackage/GenericQML",
    "KPlugin": {
        "Authors": [
            {
                "Email": "devin@kde.org",
                "Name": "Devin Lin",
                "Name[az]": "Devin Lin",
                "Name[ca@valencia]": "Devin Lin",
                "Name[ca]": "Devin Lin",
                "Name[cs]": "Devin Lin",
                "Name[de]": "Devin Lin",
                "Name[en_GB]": "Devin Lin",
                "Name[eo]": "Devin Lin",
                "Name[es]": "Devin Lin",
                "Name[eu]": "Devin Lin",
                "Name[fi]": "Devin Lin",
                "Name[fr]": "Devin Lin",
                "Name[ia]": "Devin Lin",
                "Name[is]": "Devin Lin",
                "Name[it]": "Devin Lin",
                "Name[ka]": "Devin Lin",
                "Name[ko]": "Devin Lin",
                "Name[nl]": "Devin Lin",
                "Name[nn]": "Devin Lin",
                "Name[pa]": "ਡੇਵਿਨ ਲਿਨ",
                "Name[pl]": "Devin Lin",
                "Name[pt]": "Devin Lin",
                "Name[pt_BR]": "Devin Lin",
                "Name[ru]": "Devin Lin",
                "Name[sl]": "Devin Lin",
                "Name[sv]": "Devin Lin",
                "Name[tr]": "Devin Lin",
                "Name[uk]": "Devin Lin",
                "Name[x-test]": "xxDevin Linxx",
                "Name[zh_CN]": "Devin Lin"
            }
        ],
        "Description": "Flashlight quick setting for Plasma Mobile",
        "Description[ca@valencia]": "Configuració ràpida del llum de flaix per a Plasma Mobile",
        "Description[ca]": "Configuració ràpida del llum de flaix per al Plasma Mobile",
        "Description[en_GB]": "Flashlight quick setting for Plasma Mobile",
        "Description[eo]": "Poŝlampo rapida agordo por Plasma Mobile",
        "Description[es]": "Ajuste rápido de la linterna para Plasma Mobile",
        "Description[eu]": "Esku-argiaren ezarpen azkarra Plasma Mugikorrerako",
        "Description[fi]": "Taskulampun pika-asetus Plasma Mobileen",
        "Description[fr]": "Configuration rapide de Flashlight pour Plasma Mobile",
        "Description[ia]": "Preferentia rapide de Flashlight per Plasma Mobile",
        "Description[it]": "Impostazioni rapide della torcia per Plasma Mobile",
        "Description[ka]": "ფანარის სწრაფი მორგების პარამეტრი Plasma Mobile-სთვის",
        "Description[nl]": "Snelle instelling van zaklamp voor Plasma Mobile",
        "Description[nn]": "Snøgginnstilling for lommelykt for Plasma Mobile",
        "Description[pa]": "ਪਲਾਜ਼ਮਾ ਮੋਬਾਈਲ ਲਈ ਫ਼ਲੈਸ਼ਲਾਈਟ ਫ਼ੌਰੀ ਸੈਟਿੰਗ",
        "Description[pl]": "Szybkie włączanie latarki w Przenośnej Plazmie",
        "Description[pt]": "Configuração rápida da lanterna do Plasma Mobile",
        "Description[pt_BR]": "Configurações rápidas da lanterna para o Plasma Mobile",
        "Description[ru]": "Быстрая настройка фонарика для Plasma Mobile",
        "Description[sl]": "Hitre nastavitve svetilke za Plasma Mobile",
        "Description[tr]": "Plasma Cep el feneri tez ayarı",
        "Description[uk]": "Швидке налаштовування спалаху для Мобільної Плазми",
        "Description[x-test]": "xxFlashlight quick setting for Plasma Mobilexx",
        "Description[zh_CN]": "Plasma Mobile 的手电筒快捷设置",
        "Icon": "flashlight-on",
        "Id": "org.kde.plasma.quicksetting.flashlight",
        "License": "GPL-2.0+",
        "Name": "Flashlight",
        "Name[az]": "Fənər",
        "Name[ca@valencia]": "Llum de flaix",
        "Name[ca]": "Llum de flaix",
        "Name[cs]": "Světlo",
        "Name[de]": "Taschenlampe",
        "Name[en_GB]": "Flashlight",
        "Name[eo]": "Lanterno",
        "Name[es]": "Linterna",
        "Name[eu]": "Esku-argia",
        "Name[fi]": "Taskulamppu",
        "Name[fr]": "Flashlight",
        "Name[ia]": "Flashlight (luce de fulgure)",
        "Name[is]": "Vasaljós",
        "Name[it]": "Torcia",
        "Name[ka]": "ფანარი",
        "Name[ko]": "플래시",
        "Name[nl]": "Zaklamp",
        "Name[nn]": "Lommelykt",
        "Name[pa]": "ਫਲੈਸ਼-ਲਾਈਟ",
        "Name[pl]": "Latarka",
        "Name[pt]": "Luz de Flash",
        "Name[pt_BR]": "Lanterna",
        "Name[ro]": "Lanternă",
        "Name[ru]": "Фонарик",
        "Name[sk]": "Baterka",
        "Name[sl]": "Svetilka",
        "Name[sv]": "Ficklampa",
        "Name[tr]": "El Feneri",
        "Name[uk]": "Спалах",
        "Name[x-test]": "xxFlashlightxx",
        "Name[zh_CN]": "手电筒",
        "Version": "0.1",
        "Website": "https://kde.org"
    }
}
