{
    "KPackageStructure": "KPackage/GenericQML",
    "KPlugin": {
        "Authors": [
            {
                "Email": "devin@kde.org",
                "Name": "Devin Lin",
                "Name[az]": "Devin Lin",
                "Name[ca@valencia]": "Devin Lin",
                "Name[ca]": "Devin Lin",
                "Name[cs]": "Devin Lin",
                "Name[de]": "Devin Lin",
                "Name[en_GB]": "Devin Lin",
                "Name[eo]": "Devin Lin",
                "Name[es]": "Devin Lin",
                "Name[eu]": "Devin Lin",
                "Name[fi]": "Devin Lin",
                "Name[fr]": "Devin Lin",
                "Name[ia]": "Devin Lin",
                "Name[is]": "Devin Lin",
                "Name[it]": "Devin Lin",
                "Name[ka]": "Devin Lin",
                "Name[ko]": "Devin Lin",
                "Name[nl]": "Devin Lin",
                "Name[nn]": "Devin Lin",
                "Name[pa]": "ਡੇਵਿਨ ਲਿਨ",
                "Name[pl]": "Devin Lin",
                "Name[pt]": "Devin Lin",
                "Name[pt_BR]": "Devin Lin",
                "Name[ru]": "Devin Lin",
                "Name[sl]": "Devin Lin",
                "Name[sv]": "Devin Lin",
                "Name[tr]": "Devin Lin",
                "Name[uk]": "Devin Lin",
                "Name[x-test]": "xxDevin Linxx",
                "Name[zh_CN]": "Devin Lin"
            }
        ],
        "Description": "Bluetooth quick setting for Plasma Mobile",
        "Description[ca@valencia]": "Configuració ràpida de Bluetooth per a Plasma Mobile",
        "Description[ca]": "Configuració ràpida del Bluetooth per al Plasma Mobile",
        "Description[en_GB]": "Bluetooth quick setting for Plasma Mobile",
        "Description[eo]": "Bluetooth rapida agordo por Plasma Mobile",
        "Description[es]": "Ajuste rápido del Bluetooth para Plasma Mobile",
        "Description[eu]": "Bluetooth-aren ezarpen azkarra Plasma Mugikorrerako",
        "Description[fi]": "Bluetoothin pika-asetus Plasma Mobileen",
        "Description[fr]": "Configuration rapide de Bluetooth pour Plasma Mobile",
        "Description[ia]": "Preferentia rapide de Bluetooth per Plasma Mobile",
        "Description[it]": "Impostazione rapida Bluetooth per Plasma Mobile",
        "Description[ka]": "ბლუთუზის სწრაფი მორგების პარამეტრი Plasma Mobile-სთვის",
        "Description[nl]": "Snelle instelling van bluetooth voor Plasma Mobile",
        "Description[nn]": "Snøgginnstilling for Bluetooth for Plasma Mobile",
        "Description[pa]": "ਪਲਾਜ਼ਮਾ ਮੋਬਾਈਲ ਲਈ ਬਲੂਟੁੱਥ ਫ਼ੌਰੀ ਸੈਟਿੰਗ",
        "Description[pl]": "Szybkie włączanie Bluetooth w Przenośnej Plazmie",
        "Description[pt]": "Configuração rápida do Bluetooth no Plasma Mobile",
        "Description[pt_BR]": "Configurações rápidas do Bluetooth para o Plasma Mobile",
        "Description[ru]": "Быстрая настройка Bluetooth для Plasma Mobile",
        "Description[sl]": "Hitre nastavitve Bluetooth za Plasma Mobile",
        "Description[tr]": "Plasma Cep Bluetooth tez ayarı",
        "Description[uk]": "Швидке налаштовування Bluetooth для Мобільної Плазми",
        "Description[x-test]": "xxBluetooth quick setting for Plasma Mobilexx",
        "Description[zh_CN]": "Plasma Mobile 的蓝牙快捷设置",
        "Icon": "network-bluetooth",
        "Id": "org.kde.plasma.quicksetting.bluetooth",
        "License": "GPL-2.0+",
        "Name": "Bluetooth",
        "Name[az]": "Bluetooth",
        "Name[ca@valencia]": "Bluetooth",
        "Name[ca]": "Bluetooth",
        "Name[cs]": "Bluetooth",
        "Name[de]": "Bluetooth",
        "Name[en_GB]": "Bluetooth",
        "Name[eo]": "Bluetooth",
        "Name[es]": "Bluetooth",
        "Name[eu]": "Bluetooth",
        "Name[fi]": "Bluetooth",
        "Name[fr]": "Bluetooth",
        "Name[ia]": "Bluetooth",
        "Name[is]": "Blátönn",
        "Name[it]": "Bluetooth",
        "Name[ka]": "ბლუთუზი",
        "Name[ko]": "블루투스",
        "Name[nl]": "Bluetooth",
        "Name[nn]": "Bluetooth",
        "Name[pa]": "ਬਲੂਟੁੱਥ",
        "Name[pl]": "Bluetooth",
        "Name[pt]": "Bluetooth",
        "Name[pt_BR]": "Bluetooth",
        "Name[ro]": "Bluetooth",
        "Name[ru]": "Bluetooth",
        "Name[sk]": "Bluetooth",
        "Name[sl]": "Bluetooth",
        "Name[sv]": "Blåtand",
        "Name[tr]": "Bluetooth",
        "Name[uk]": "Bluetooth",
        "Name[x-test]": "xxBluetoothxx",
        "Name[zh_CN]": "蓝牙",
        "Version": "0.1",
        "Website": "https://kde.org"
    }
}
